<svg xmlns="http://www.w3.org/2000/svg" width="22.717" height="22.63" viewBox="0 0 22.717 22.63">
  <path id="Path_11410" data-name="Path 11410" d="M-203.485,78.643a1.324,1.324,0,0,1,.079,1.861,1.323,1.323,0,0,1-1.86-.08l-5.49-6.029a3.48,3.48,0,0,1-1.27-.282l2-2,1.307,1.307Zm-11.555-6.618,2.468-2.468-2.5-2.5-5.155-5.155a.716.716,0,0,0-.614-.215.589.589,0,0,0-.453.588c-.174,1.677,1.055,4.587,5.424,8.956C-215.582,71.519-215.305,71.782-215.04,72.026Zm4.586-6.877.318-.318.005-.005Zm9.236-.558a.637.637,0,0,0-.858-.151l-3.912,3.911a.586.586,0,0,1-.808-.1.585.585,0,0,1-.1-.807l3.912-3.912a.638.638,0,0,0-.151-.857.638.638,0,0,0-.858-.151l-3.915,3.909a.586.586,0,0,1-.808-.1.585.585,0,0,1-.1-.807l3.915-3.909a.638.638,0,0,0-.15-.857.637.637,0,0,0-.858-.151l-4.226,4.225c-1.377,1.381-.936,2.342-.15,3.213l-10.872,10.872a1.323,1.323,0,0,0-.08,1.86,1.323,1.323,0,0,0,1.86-.08l10.872-10.873c.872.786,1.834,1.228,3.217-.155l4.22-4.22A.637.637,0,0,0-201.219,64.59Z" transform="translate(222.583 -59.49)" fill="none" stroke="#5dff00" stroke-width="2"/>
</svg>
